module github.com/alezama/GrpcCourse

go 1.14

require (
	github.com/golang/protobuf v1.4.2
	go.mongodb.org/mongo-driver v1.3.5
	golang.org/x/net v0.0.0-20200707034311-ab3426394381
	golang.org/x/sys v0.0.0-20200625212154-ddb9806d33ae // indirect
	golang.org/x/text v0.3.3 // indirect
	google.golang.org/genproto v0.0.0-20200707001353-8e8330bf89df // indirect
	google.golang.org/grpc v1.30.0
	google.golang.org/protobuf v1.25.0
)
